test/vcd/plasma_tb.vcd
$date
  Fri Sep 18 21:44:56 2009
$end
$version
  GHDL v0
$end
$timescale
  1 fs
$end
$var reg 1 ! tb_clk $end
$var reg 1 " tb_reset $end
$var reg 1 # tb_intr $end
$var reg 32 $ tb_mem_address[31:0] $end
$var reg 32 % tb_mem_data_w[31:0] $end
$var reg 32 & tb_mem_data_r[31:0] $end
$var reg 4 ' tb_mem_byte_sel[3:0] $end
$var reg 1 ( tb_mem_write $end
$var reg 1 ) tb_mem_pause $end
$scope module tb_mlite_cpu $end
$var reg 1 * clk $end
$var reg 1 + reset_in $end
$var reg 1 , intr_in $end
$var reg 32 - mem_address[31:0] $end
$var reg 32 . mem_data_w[31:0] $end
$var reg 32 / mem_data_r[31:0] $end
$var reg 4 0 mem_byte_sel[3:0] $end
$var reg 1 1 mem_write $end
$var reg 1 2 mem_pause $end
$var reg 32 3 opcode[31:0] $end
$var reg 6 4 rs_index[5:0] $end
$var reg 6 5 rt_index[5:0] $end
$var reg 6 6 rd_index[5:0] $end
$var reg 6 7 rd_indexd[5:0] $end
$var reg 32 8 reg_source[31:0] $end
$var reg 32 9 reg_target[31:0] $end
$var reg 32 : reg_dest[31:0] $end
$var reg 32 ; reg_destd[31:0] $end
$var reg 32 < a_bus[31:0] $end
$var reg 32 = a_busd[31:0] $end
$var reg 32 > b_bus[31:0] $end
$var reg 32 ? b_busd[31:0] $end
$var reg 32 @ c_bus[31:0] $end
$var reg 32 A c_alu[31:0] $end
$var reg 32 B c_shift[31:0] $end
$var reg 32 C c_mult[31:0] $end
$var reg 32 D c_memory[31:0] $end
$var reg 16 E imm[15:0] $end
$var reg 32 F pc[31:0] $end
$var reg 32 G pc_plus4[31:0] $end
$var reg 4 H alu_func[3:0] $end
$var reg 4 I alu_funcd[3:0] $end
$var reg 2 J shift_func[1:0] $end
$var reg 2 K shift_funcd[1:0] $end
$var reg 4 L mult_func[3:0] $end
$var reg 4 M mult_funcd[3:0] $end
$var reg 3 N branch_func[2:0] $end
$var reg 1 O take_branch $end
$var reg 2 P a_source[1:0] $end
$var reg 2 Q b_source[1:0] $end
$var reg 3 R c_source[2:0] $end
$var reg 2 S pc_source[1:0] $end
$var reg 4 T mem_source[3:0] $end
$var reg 1 U pause_mult $end
$var reg 1 V pause_ctrl $end
$var reg 1 W pause_pipeline $end
$var reg 1 X pause_any $end
$var reg 1 Y pause_non_ctrl $end
$var reg 1 Z pause_bank $end
$var reg 1 [ nullify_op $end
$var reg 1 \ intr_enable $end
$var reg 1 ] intr_signal $end
$var reg 4 ^ reset_reg[3:0] $end
$var reg 1 _ reset $end
$scope module u1_pc_next $end
$var reg 1 ` clk $end
$var reg 1 a reset_in $end
$var reg 30 b pc_new[31:2] $end
$var reg 1 c take_branch $end
$var reg 1 d pause_in $end
$var reg 26 e opcode25_0[25:0] $end
$var reg 2 f pc_source[1:0] $end
$var reg 32 g pc_out[31:0] $end
$var reg 32 h pc_out_plus4[31:0] $end
$var reg 30 i pc_reg[31:2] $end
$upscope $end
$scope module u2_mem_ctrl $end
$var reg 1 j clk $end
$var reg 1 k reset_in $end
$var reg 1 l pause_in $end
$var reg 1 m nullify_op $end
$var reg 32 n address_pc[31:0] $end
$var reg 32 o opcode_out[31:0] $end
$var reg 32 p address_data[31:0] $end
$var reg 4 q mem_source[3:0] $end
$var reg 32 r data_write[31:0] $end
$var reg 32 s data_read[31:0] $end
$var reg 1 t pause_out $end
$var reg 32 u mem_address[31:0] $end
$var reg 32 v mem_data_w[31:0] $end
$var reg 32 w mem_data_r[31:0] $end
$var reg 4 x mem_byte_sel[3:0] $end
$var reg 1 y mem_write $end
$var reg 32 z opcode_reg[31:0] $end
$var reg 32 { next_opcode_reg[31:0] $end
$var reg 2 | mem_state_reg[1:0] $end
$var reg 32 } address_reg[31:0] $end
$var reg 1 !" write_reg $end
$var reg 4 "" byte_sel_reg[3:0] $end
$upscope $end
$scope module u3_control $end
$var reg 32 #" opcode[31:0] $end
$var reg 1 $" intr_signal $end
$var reg 6 %" rs_index[5:0] $end
$var reg 6 &" rt_index[5:0] $end
$var reg 6 '" rd_index[5:0] $end
$var reg 16 (" imm_out[15:0] $end
$var reg 4 )" alu_func[3:0] $end
$var reg 2 *" shift_func[1:0] $end
$var reg 4 +" mult_func[3:0] $end
$var reg 3 ," branch_func[2:0] $end
$var reg 2 -" a_source_out[1:0] $end
$var reg 2 ." b_source_out[1:0] $end
$var reg 3 /" c_source_out[2:0] $end
$var reg 2 0" pc_source_out[1:0] $end
$var reg 4 1" mem_source_out[3:0] $end
$upscope $end
$scope module u4_reg_bank $end
$var reg 1 2" clk $end
$var reg 1 3" reset_in $end
$var reg 1 4" pause $end
$var reg 6 5" rs_index[5:0] $end
$var reg 6 6" rt_index[5:0] $end
$var reg 6 7" rd_index[5:0] $end
$var reg 32 8" reg_source_out[31:0] $end
$var reg 32 9" reg_target_out[31:0] $end
$var reg 32 :" reg_dest_new[31:0] $end
$var reg 1 ;" intr_enable $end
$var reg 1 <" intr_enable_reg $end
$var reg 5 =" addr_a1[4:0] $end
$var reg 5 >" addr_a2[4:0] $end
$var reg 5 ?" addr_b[4:0] $end
$var reg 32 @" data_out1[31:0] $end
$var reg 32 A" data_out2[31:0] $end
$var reg 1 B" write_enable $end
$upscope $end
$scope module u5_bus_mux $end
$var reg 16 C" imm_in[15:0] $end
$var reg 32 D" reg_source[31:0] $end
$var reg 2 E" a_mux[1:0] $end
$var reg 32 F" a_out[31:0] $end
$var reg 32 G" reg_target[31:0] $end
$var reg 2 H" b_mux[1:0] $end
$var reg 32 I" b_out[31:0] $end
$var reg 32 J" c_bus[31:0] $end
$var reg 32 K" c_memory[31:0] $end
$var reg 32 L" c_pc[31:0] $end
$var reg 32 M" c_pc_plus4[31:0] $end
$var reg 3 N" c_mux[2:0] $end
$var reg 32 O" reg_dest_out[31:0] $end
$var reg 3 P" branch_func[2:0] $end
$var reg 1 Q" take_branch $end
$upscope $end
$scope module u6_alu $end
$var reg 32 R" a_in[31:0] $end
$var reg 32 S" b_in[31:0] $end
$var reg 4 T" alu_function[3:0] $end
$var reg 32 U" c_alu[31:0] $end
$var reg 33 V" aa[32:0] $end
$var reg 33 W" bb[32:0] $end
$var reg 33 X" sum[32:0] $end
$var reg 1 Y" do_add $end
$upscope $end
$scope module u7_shifter $end
$var reg 32 Z" value[31:0] $end
$var reg 5 [" shift_amount[4:0] $end
$var reg 2 \" shift_func[1:0] $end
$var reg 32 ]" c_shift[31:0] $end
$upscope $end
$scope module u8_mult $end
$var reg 1 ^" clk $end
$var reg 32 _" a[31:0] $end
$var reg 32 `" b[31:0] $end
$var reg 4 a" mult_func[3:0] $end
$var reg 32 b" c_mult[31:0] $end
$var reg 1 c" pause_out $end
$var reg 1 d" do_mult_reg $end
$var reg 1 e" do_signed_reg $end
$var reg 6 f" count_reg[5:0] $end
$var reg 32 g" reg_a[31:0] $end
$var reg 64 h" reg_b[63:0] $end
$var reg 32 i" answer_reg[31:0] $end
$var reg 34 j" aa[33:0] $end
$var reg 34 k" bb[33:0] $end
$var reg 34 l" sum[33:0] $end
$var reg 34 m" reg_a_times3[33:0] $end
$upscope $end
$scope module u9_pipeline $end
$var reg 1 n" clk $end
$var reg 1 o" reset $end
$var reg 32 p" a_bus[31:0] $end
$var reg 32 q" a_busd[31:0] $end
$var reg 32 r" b_bus[31:0] $end
$var reg 32 s" b_busd[31:0] $end
$var reg 4 t" alu_func[3:0] $end
$var reg 4 u" alu_funcd[3:0] $end
$var reg 2 v" shift_func[1:0] $end
$var reg 2 w" shift_funcd[1:0] $end
$var reg 4 x" mult_func[3:0] $end
$var reg 4 y" mult_funcd[3:0] $end
$var reg 32 z" reg_dest[31:0] $end
$var reg 32 {" reg_destd[31:0] $end
$var reg 6 |" rd_index[5:0] $end
$var reg 6 }" rd_indexd[5:0] $end
$var reg 6 !# rs_index[5:0] $end
$var reg 6 "# rt_index[5:0] $end
$var reg 2 ## pc_source[1:0] $end
$var reg 4 $# mem_source[3:0] $end
$var reg 2 %# a_source[1:0] $end
$var reg 2 &# b_source[1:0] $end
$var reg 3 '# c_source[2:0] $end
$var reg 32 (# c_bus[31:0] $end
$var reg 1 )# pause_any $end
$var reg 1 *# pause_pipeline $end
$var reg 6 +# rd_index_reg[5:0] $end
$var reg 32 ,# reg_dest_reg[31:0] $end
$var reg 3 -# c_source_reg[2:0] $end
$var reg 1 .# pause_enable_reg $end
$upscope $end
$upscope $end
$enddefinitions $end
#0
0!
1"
0#
b00000000000000000000000000000000 $
bZZZZZZZZZZZZZZZZZZZZZZZZZZZZZZZZ %
b00000000000000000000000000000000 &
b0000 '
0(
0)
0*
1+
0,
b00000000000000000000000000000000 -
bZZZZZZZZZZZZZZZZZZZZZZZZZZZZZZZZ .
b00000000000000000000000000000000 /
b0000 0
01
02
b00000000000000000000000000000000 3
b000000 4
b000000 5
b000000 6
b000000 7
b00000000000000000000000000000000 8
b00000000000000000000000000000000 9
bUUUUUUUUUUUUUUUUUUUUUUUUUUUUUUUU :
bUUUUUUUUUUUUUUUUUUUUUUUUUUUUUUUU ;
b00000000000000000000000000000000 <
bUUUUUUUUUUUUUUUUUUUUUUUUUUUUUUUU =
b00000000000000000000000000000000 >
bUUUUUUUUUUUUUUUUUUUUUUUUUUUUUUUU ?
bUUUUUUUUUUUUUUUUUUUUUUUUUUUUUUUU @
b00000000000000000000000000000000 A
bUUUUUUUUUUUUUUUUUUUUUUUUUUUUUUUU B
b00000000000000000000000000000000 C
b00000000000000000000000000000000 D
b0000000000000000 E
b00000000000000000000000000000000 F
b00000000000000000000000000000100 G
b0000 H
bUUUU I
b01 J
bUU K
b0000 L
bUUUU M
b010 N
1O
b01 P
b00 Q
b001 R
b00 S
b0000 T
0U
0V
0W
0X
0Y
0Z
0[
0\
U]
b0000 ^
1_
0`
1a
bUUUUUUUUUUUUUUUUUUUUUUUUUUUUUU b
1c
0d
b00000000000000000000000000 e
b00 f
b00000000000000000000000000000000 g
b00000000000000000000000000000100 h
b000000000000000000000000000000 i
0j
1k
0l
0m
b00000000000000000000000000000000 n
b00000000000000000000000000000000 o
bUUUUUUUUUUUUUUUUUUUUUUUUUUUUUUUU p
b0000 q
b00000000000000000000000000000000 r
b00000000000000000000000000000000 s
0t
b00000000000000000000000000000000 u
bZZZZZZZZZZZZZZZZZZZZZZZZZZZZZZZZ v
b00000000000000000000000000000000 w
b0000 x
0y
b00000000000000000000000000000000 z
b00000000000000000000000000000000 {
b00 |
bUUUUUUUUUUUUUUUUUUUUUUUUUUUUUUUU }
0!"
b0000 ""
b00000000000000000000000000000000 #"
U$"
b000000 %"
b000000 &"
b000000 '"
b0000000000000000 ("
b0000 )"
b01 *"
b0000 +"
b010 ,"
b01 -"
b00 ."
b001 /"
b00 0"
b0000 1"
02"
13"
04"
b000000 5"
b000000 6"
b000000 7"
b00000000000000000000000000000000 8"
b00000000000000000000000000000000 9"
bUUUUUUUUUUUUUUUUUUUUUUUUUUUUUUUU :"
0;"
0<"
b00000 ="
b00000 >"
b00000 ?"
bUUUUUUUUUUUUUUUUUUUUUUUUUUUUUUUU @"
bUUUUUUUUUUUUUUUUUUUUUUUUUUUUUUUU A"
0B"
b0000000000000000 C"
b00000000000000000000000000000000 D"
b01 E"
b00000000000000000000000000000000 F"
b00000000000000000000000000000000 G"
b00 H"
b00000000000000000000000000000000 I"
bUUUUUUUUUUUUUUUUUUUUUUUUUUUUUUUU J"
b00000000000000000000000000000000 K"
b00000000000000000000000000000000 L"
b00000000000000000000000000000100 M"
b001 N"
bUUUUUUUUUUUUUUUUUUUUUUUUUUUUUUUU O"
b010 P"
1Q"
bUUUUUUUUUUUUUUUUUUUUUUUUUUUUUUUU R"
bUUUUUUUUUUUUUUUUUUUUUUUUUUUUUUUU S"
bUUUU T"
b00000000000000000000000000000000 U"
bUUUUUUUUUUUUUUUUUUUUUUUUUUUUUUUUU V"
bUUUUUUUUUUUUUUUUUUUUUUUUUUUUUUUUU W"
bUUUUUUUUUUUUUUUUUUUUUUUUUUUUUUUUU X"
0Y"
bUUUUUUUUUUUUUUUUUUUUUUUUUUUUUUUU Z"
bUUUUU ["
bUU \"
bUUUUUUUUUUUUUUUUUUUUUUUUUUUUUUUU ]"
0^"
bUUUUUUUUUUUUUUUUUUUUUUUUUUUUUUUU _"
bUUUUUUUUUUUUUUUUUUUUUUUUUUUUUUUU `"
bUUUU a"
b00000000000000000000000000000000 b"
0c"
Ud"
Ue"
bUUUUUU f"
bUUUUUUUUUUUUUUUUUUUUUUUUUUUUUUUU g"
bUUUUUUUUUUUUUUUUUUUUUUUUUUUUUUUUUUUUUUUUUUUUUUUUUUUUUUUUUUUUUUUU h"
bUUUUUUUUUUUUUUUUUUUUUUUUUUUUUUUU i"
bUUUUUUUUUUUUUUUUUUUUUUUUUUUUUUUUUU j"
bUUUUUUUUUUUUUUUUUUUUUUUUUUUUUUUUUU k"
bXXXXXXXXXXXXXXXXXXXXXXXXXXXXXXXXXX l"
bUUUUUUUUUUUUUUUUUUUUUUUUUUUUUUUUUU m"
0n"
1o"
b00000000000000000000000000000000 p"
bUUUUUUUUUUUUUUUUUUUUUUUUUUUUUUUU q"
b00000000000000000000000000000000 r"
bUUUUUUUUUUUUUUUUUUUUUUUUUUUUUUUU s"
b0000 t"
bUUUU u"
b01 v"
bUU w"
b0000 x"
bUUUU y"
bUUUUUUUUUUUUUUUUUUUUUUUUUUUUUUUU z"
bUUUUUUUUUUUUUUUUUUUUUUUUUUUUUUUU {"
b000000 |"
b000000 }"
b000000 !#
b000000 "#
b00 ##
b0000 $#
b01 %#
b00 &#
b001 '#
bUUUUUUUUUUUUUUUUUUUUUUUUUUUUUUUU (#
0)#
0*#
b000000 +#
bUUUUUUUUUUUUUUUUUUUUUUUUUUUUUUUU ,#
bUUU -#
1.#
#5000000
1!
1*
1`
1j
12"
1^"
1n"
#10000000
0!
0*
0`
0j
02"
0^"
0n"
#15000000
1!
1*
1`
1j
12"
1^"
1n"
#20000000
0!
0*
0`
0j
02"
0^"
0n"
#25000000
1!
1*
1`
1j
12"
1^"
1n"
#30000000
0!
0*
0`
0j
02"
0^"
0n"
#35000000
1!
1*
1`
1j
12"
1^"
1n"
#40000000
0!
0"
0*
0+
0`
0j
02"
0^"
0n"
#45000000
1!
1*
0]
b0001 ^
1`
1j
0$"
12"
1^"
1n"
#50000000
0!
0*
0`
0j
02"
0^"
0n"
#55000000
1!
1*
b0010 ^
1`
1j
12"
1^"
1n"
#60000000
0!
0*
0`
0j
02"
0^"
0n"
#65000000
1!
1*
b0011 ^
1`
1j
12"
1^"
1n"
#70000000
0!
0*
0`
0j
02"
0^"
0n"
#75000000
1!
1*
b0100 ^
1`
1j
12"
1^"
1n"
#80000000
0!
0*
0`
0j
02"
0^"
0n"
#85000000
1!
1*
b0101 ^
1`
1j
12"
1^"
1n"
#90000000
0!
0*
0`
0j
02"
0^"
0n"
#95000000
1!
1*
b0110 ^
1`
1j
12"
1^"
1n"
#100000000
0!
0*
0`
0j
02"
0^"
0n"
#105000000
1!
1*
b0111 ^
1`
1j
12"
1^"
1n"
#110000000
0!
0*
0`
0j
02"
0^"
0n"
#115000000
1!
1*
b1000 ^
1`
1j
12"
1^"
1n"
#120000000
0!
0*
0`
0j
02"
0^"
0n"
#125000000
1!
1*
b1001 ^
1`
1j
12"
1^"
1n"
#130000000
0!
0*
0`
0j
02"
0^"
0n"
#135000000
1!
1*
b1010 ^
1`
1j
12"
1^"
1n"
#140000000
0!
0*
0`
0j
02"
0^"
0n"
#145000000
1!
1*
b1011 ^
1`
1j
12"
1^"
1n"
#150000000
0!
0*
0`
0j
02"
0^"
0n"
#155000000
1!
1*
b1100 ^
1`
1j
12"
1^"
1n"
#160000000
0!
0*
0`
0j
02"
0^"
0n"
#165000000
1!
1*
b1101 ^
1`
1j
12"
1^"
1n"
#170000000
0!
0*
0`
0j
02"
0^"
0n"
#175000000
1!
1*
b1110 ^
1`
1j
12"
1^"
1n"
#180000000
0!
0*
0`
0j
02"
0^"
0n"
#185000000
1!
1*
b1111 ^
0_
1`
0a
1j
0k
12"
03"
1^"
1n"
0o"
#190000000
0!
0*
0`
0j
02"
0^"
0n"
#195000000
1!
b00000000000000000000000000000100 $
1*
b00000000000000000000000000000100 -
b00000000000000000000000000000000 :
b00000000000000000000000000000000 ;
b00000000000000000000000000000000 =
b00000000000000000000000000000000 ?
b00000000000000000000000000000000 @
b00000000000000000000000000000000 B
b00000000000000000000000000000100 F
b00000000000000000000000000001000 G
b0000 I
b01 K
b0000 M
1`
b000000000000000000000000000000 b
b00000000000000000000000000000100 g
b00000000000000000000000000001000 h
b000000000000000000000000000001 i
1j
b00000000000000000000000000000100 n
b00000000000000000000000000000000 p
b00000000000000000000000000000100 u
b00000000000000000000000000000000 }
12"
b00000000000000000000000000000000 :"
b00000000000000000000000000000000 J"
b00000000000000000000000000000100 L"
b00000000000000000000000000001000 M"
b00000000000000000000000000000000 O"
b00000000000000000000000000000000 R"
b00000000000000000000000000000000 S"
b0000 T"
b000000000000000000000000000000000 V"
b000000000000000000000000000000000 W"
b000000000000000000000000000000000 X"
b00000000000000000000000000000000 Z"
b00000 ["
b01 \"
b00000000000000000000000000000000 ]"
1^"
b00000000000000000000000000000000 _"
b00000000000000000000000000000000 `"
b0000 a"
1n"
b00000000000000000000000000000000 q"
b00000000000000000000000000000000 s"
b0000 u"
b01 w"
b0000 y"
b00000000000000000000000000000000 z"
b00000000000000000000000000000000 {"
b00000000000000000000000000000000 (#
b001 -#
#200000000
0!
0*
0`
0j
02"
0^"
0n"
#205000000
1!
b00000000000000000000000000001000 $
1*
b00000000000000000000000000001000 -
b00000000000000000000000000001000 F
b00000000000000000000000000001100 G
1`
b00000000000000000000000000001000 g
b00000000000000000000000000001100 h
b000000000000000000000000000010 i
1j
b00000000000000000000000000001000 n
b00000000000000000000000000001000 u
12"
b00000000000000000000000000001000 L"
b00000000000000000000000000001100 M"
1^"
1n"
b00000000000000000000000000000000 ,#
#210000000
0!
0*
0`
0j
02"
0^"
0n"
#215000000
1!
b00000000000000000000000000001100 $
1*
b00000000000000000000000000001100 -
b00000000000000000000000000001100 F
b00000000000000000000000000010000 G
1`
b00000000000000000000000000001100 g
b00000000000000000000000000010000 h
b000000000000000000000000000011 i
1j
b00000000000000000000000000001100 n
b00000000000000000000000000001100 u
12"
b00000000000000000000000000001100 L"
b00000000000000000000000000010000 M"
1^"
1n"
#220000000
0!
0*
0`
0j
02"
0^"
0n"
#225000000
1!
b00000000000000000000000000010000 $
1*
b00000000000000000000000000010000 -
b00000000000000000000000000010000 F
b00000000000000000000000000010100 G
1`
b00000000000000000000000000010000 g
b00000000000000000000000000010100 h
b000000000000000000000000000100 i
1j
b00000000000000000000000000010000 n
b00000000000000000000000000010000 u
12"
b00000000000000000000000000010000 L"
b00000000000000000000000000010100 M"
1^"
1n"
#230000000
0!
0*
0`
0j
02"
0^"
0n"
#235000000
1!
b00000000000000000000000000010100 $
1*
b00000000000000000000000000010100 -
b00000000000000000000000000010100 F
b00000000000000000000000000011000 G
1`
b00000000000000000000000000010100 g
b00000000000000000000000000011000 h
b000000000000000000000000000101 i
1j
b00000000000000000000000000010100 n
b00000000000000000000000000010100 u
12"
b00000000000000000000000000010100 L"
b00000000000000000000000000011000 M"
1^"
1n"
#240000000
0!
0*
0`
0j
02"
0^"
0n"
#245000000
1!
b00000000000000000000000000011000 $
1*
b00000000000000000000000000011000 -
b00000000000000000000000000011000 F
b00000000000000000000000000011100 G
1`
b00000000000000000000000000011000 g
b00000000000000000000000000011100 h
b000000000000000000000000000110 i
1j
b00000000000000000000000000011000 n
b00000000000000000000000000011000 u
12"
b00000000000000000000000000011000 L"
b00000000000000000000000000011100 M"
1^"
1n"
#250000000
0!
0*
0`
0j
02"
0^"
0n"
#255000000
1!
b00000000000000000000000000011100 $
1*
b00000000000000000000000000011100 -
b00000000000000000000000000011100 F
b00000000000000000000000000100000 G
1`
b00000000000000000000000000011100 g
b00000000000000000000000000100000 h
b000000000000000000000000000111 i
1j
b00000000000000000000000000011100 n
b00000000000000000000000000011100 u
12"
b00000000000000000000000000011100 L"
b00000000000000000000000000100000 M"
1^"
1n"
#260000000
0!
0*
0`
0j
02"
0^"
0n"
#265000000
1!
b00000000000000000000000000100000 $
1*
b00000000000000000000000000100000 -
b00000000000000000000000000100000 F
b00000000000000000000000000100100 G
1`
b00000000000000000000000000100000 g
b00000000000000000000000000100100 h
b000000000000000000000000001000 i
1j
b00000000000000000000000000100000 n
b00000000000000000000000000100000 u
12"
b00000000000000000000000000100000 L"
b00000000000000000000000000100100 M"
1^"
1n"
#270000000
0!
0*
0`
0j
02"
0^"
0n"
#275000000
1!
b00000000000000000000000000100100 $
1*
b00000000000000000000000000100100 -
b00000000000000000000000000100100 F
b00000000000000000000000000101000 G
1`
b00000000000000000000000000100100 g
b00000000000000000000000000101000 h
b000000000000000000000000001001 i
1j
b00000000000000000000000000100100 n
b00000000000000000000000000100100 u
12"
b00000000000000000000000000100100 L"
b00000000000000000000000000101000 M"
1^"
1n"
#280000000
0!
0*
0`
0j
02"
0^"
0n"
#285000000
1!
b00000000000000000000000000101000 $
1*
b00000000000000000000000000101000 -
b00000000000000000000000000101000 F
b00000000000000000000000000101100 G
1`
b00000000000000000000000000101000 g
b00000000000000000000000000101100 h
b000000000000000000000000001010 i
1j
b00000000000000000000000000101000 n
b00000000000000000000000000101000 u
12"
b00000000000000000000000000101000 L"
b00000000000000000000000000101100 M"
1^"
1n"
#290000000
0!
0*
0`
0j
02"
0^"
0n"
#295000000
1!
b00000000000000000000000000101100 $
1*
b00000000000000000000000000101100 -
b00000000000000000000000000101100 F
b00000000000000000000000000110000 G
1`
b00000000000000000000000000101100 g
b00000000000000000000000000110000 h
b000000000000000000000000001011 i
1j
b00000000000000000000000000101100 n
b00000000000000000000000000101100 u
12"
b00000000000000000000000000101100 L"
b00000000000000000000000000110000 M"
1^"
1n"
#300000000
0!
0*
0`
0j
02"
0^"
0n"
#305000000
1!
b00000000000000000000000000110000 $
1*
b00000000000000000000000000110000 -
b00000000000000000000000000110000 F
b00000000000000000000000000110100 G
1`
b00000000000000000000000000110000 g
b00000000000000000000000000110100 h
b000000000000000000000000001100 i
1j
b00000000000000000000000000110000 n
b00000000000000000000000000110000 u
12"
b00000000000000000000000000110000 L"
b00000000000000000000000000110100 M"
1^"
1n"
#310000000
0!
0*
0`
0j
02"
0^"
0n"
#315000000
1!
b00000000000000000000000000110100 $
1*
b00000000000000000000000000110100 -
b00000000000000000000000000110100 F
b00000000000000000000000000111000 G
1`
b00000000000000000000000000110100 g
b00000000000000000000000000111000 h
b000000000000000000000000001101 i
1j
b00000000000000000000000000110100 n
b00000000000000000000000000110100 u
12"
b00000000000000000000000000110100 L"
b00000000000000000000000000111000 M"
1^"
1n"
#320000000
0!
0*
0`
0j
02"
0^"
0n"
#325000000
1!
b00000000000000000000000000111000 $
1*
b00000000000000000000000000111000 -
b00000000000000000000000000111000 F
b00000000000000000000000000111100 G
1`
b00000000000000000000000000111000 g
b00000000000000000000000000111100 h
b000000000000000000000000001110 i
1j
b00000000000000000000000000111000 n
b00000000000000000000000000111000 u
12"
b00000000000000000000000000111000 L"
b00000000000000000000000000111100 M"
1^"
1n"
#330000000
0!
0*
0`
0j
02"
0^"
0n"
#335000000
1!
b00000000000000000000000000111100 $
1*
b00000000000000000000000000111100 -
b00000000000000000000000000111100 F
b00000000000000000000000001000000 G
1`
b00000000000000000000000000111100 g
b00000000000000000000000001000000 h
b000000000000000000000000001111 i
1j
b00000000000000000000000000111100 n
b00000000000000000000000000111100 u
12"
b00000000000000000000000000111100 L"
b00000000000000000000000001000000 M"
1^"
1n"
#340000000
0!
0*
0`
0j
02"
0^"
0n"
#345000000
1!
b00000000000000000000000001000000 $
1*
b00000000000000000000000001000000 -
b00000000000000000000000001000000 F
b00000000000000000000000001000100 G
1`
b00000000000000000000000001000000 g
b00000000000000000000000001000100 h
b000000000000000000000000010000 i
1j
b00000000000000000000000001000000 n
b00000000000000000000000001000000 u
12"
b00000000000000000000000001000000 L"
b00000000000000000000000001000100 M"
1^"
1n"
#350000000
0!
0*
0`
0j
02"
0^"
0n"
#355000000
1!
b00000000000000000000000001000100 $
1*
b00000000000000000000000001000100 -
b00000000000000000000000001000100 F
b00000000000000000000000001001000 G
1`
b00000000000000000000000001000100 g
b00000000000000000000000001001000 h
b000000000000000000000000010001 i
1j
b00000000000000000000000001000100 n
b00000000000000000000000001000100 u
12"
b00000000000000000000000001000100 L"
b00000000000000000000000001001000 M"
1^"
1n"
#360000000
0!
0*
0`
0j
02"
0^"
0n"
#365000000
1!
b00000000000000000000000001001000 $
1*
b00000000000000000000000001001000 -
b00000000000000000000000001001000 F
b00000000000000000000000001001100 G
1`
b00000000000000000000000001001000 g
b00000000000000000000000001001100 h
b000000000000000000000000010010 i
1j
b00000000000000000000000001001000 n
b00000000000000000000000001001000 u
12"
b00000000000000000000000001001000 L"
b00000000000000000000000001001100 M"
1^"
1n"
#370000000
0!
0*
0`
0j
02"
0^"
0n"
#375000000
1!
b00000000000000000000000001001100 $
1*
b00000000000000000000000001001100 -
b00000000000000000000000001001100 F
b00000000000000000000000001010000 G
1`
b00000000000000000000000001001100 g
b00000000000000000000000001010000 h
b000000000000000000000000010011 i
1j
b00000000000000000000000001001100 n
b00000000000000000000000001001100 u
12"
b00000000000000000000000001001100 L"
b00000000000000000000000001010000 M"
1^"
1n"
#380000000
0!
0*
0`
0j
02"
0^"
0n"
#385000000
1!
b00000000000000000000000001010000 $
1*
b00000000000000000000000001010000 -
b00000000000000000000000001010000 F
b00000000000000000000000001010100 G
1`
b00000000000000000000000001010000 g
b00000000000000000000000001010100 h
b000000000000000000000000010100 i
1j
b00000000000000000000000001010000 n
b00000000000000000000000001010000 u
12"
b00000000000000000000000001010000 L"
b00000000000000000000000001010100 M"
1^"
1n"
#390000000
0!
0*
0`
0j
02"
0^"
0n"
#395000000
1!
b00000000000000000000000001010100 $
1*
b00000000000000000000000001010100 -
b00000000000000000000000001010100 F
b00000000000000000000000001011000 G
1`
b00000000000000000000000001010100 g
b00000000000000000000000001011000 h
b000000000000000000000000010101 i
1j
b00000000000000000000000001010100 n
b00000000000000000000000001010100 u
12"
b00000000000000000000000001010100 L"
b00000000000000000000000001011000 M"
1^"
1n"
#400000000
0!
0*
0`
0j
02"
0^"
0n"
#405000000
1!
b00000000000000000000000001011000 $
1*
b00000000000000000000000001011000 -
b00000000000000000000000001011000 F
b00000000000000000000000001011100 G
1`
b00000000000000000000000001011000 g
b00000000000000000000000001011100 h
b000000000000000000000000010110 i
1j
b00000000000000000000000001011000 n
b00000000000000000000000001011000 u
12"
b00000000000000000000000001011000 L"
b00000000000000000000000001011100 M"
1^"
1n"
#410000000
0!
0*
0`
0j
02"
0^"
0n"
#415000000
1!
b00000000000000000000000001011100 $
1*
b00000000000000000000000001011100 -
b00000000000000000000000001011100 F
b00000000000000000000000001100000 G
1`
b00000000000000000000000001011100 g
b00000000000000000000000001100000 h
b000000000000000000000000010111 i
1j
b00000000000000000000000001011100 n
b00000000000000000000000001011100 u
12"
b00000000000000000000000001011100 L"
b00000000000000000000000001100000 M"
1^"
1n"
#420000000
0!
0*
0`
0j
02"
0^"
0n"
#425000000
1!
b00000000000000000000000001100000 $
1*
b00000000000000000000000001100000 -
b00000000000000000000000001100000 F
b00000000000000000000000001100100 G
1`
b00000000000000000000000001100000 g
b00000000000000000000000001100100 h
b000000000000000000000000011000 i
1j
b00000000000000000000000001100000 n
b00000000000000000000000001100000 u
12"
b00000000000000000000000001100000 L"
b00000000000000000000000001100100 M"
1^"
1n"
#430000000
0!
0*
0`
0j
02"
0^"
0n"
#435000000
1!
b00000000000000000000000001100100 $
1*
b00000000000000000000000001100100 -
b00000000000000000000000001100100 F
b00000000000000000000000001101000 G
1`
b00000000000000000000000001100100 g
b00000000000000000000000001101000 h
b000000000000000000000000011001 i
1j
b00000000000000000000000001100100 n
b00000000000000000000000001100100 u
12"
b00000000000000000000000001100100 L"
b00000000000000000000000001101000 M"
1^"
1n"
#440000000
0!
0*
0`
0j
02"
0^"
0n"
#445000000
1!
b00000000000000000000000001101000 $
1*
b00000000000000000000000001101000 -
b00000000000000000000000001101000 F
b00000000000000000000000001101100 G
1`
b00000000000000000000000001101000 g
b00000000000000000000000001101100 h
b000000000000000000000000011010 i
1j
b00000000000000000000000001101000 n
b00000000000000000000000001101000 u
12"
b00000000000000000000000001101000 L"
b00000000000000000000000001101100 M"
1^"
1n"
#450000000
0!
0*
0`
0j
02"
0^"
0n"
#455000000
1!
b00000000000000000000000001101100 $
1*
b00000000000000000000000001101100 -
b00000000000000000000000001101100 F
b00000000000000000000000001110000 G
1`
b00000000000000000000000001101100 g
b00000000000000000000000001110000 h
b000000000000000000000000011011 i
1j
b00000000000000000000000001101100 n
b00000000000000000000000001101100 u
12"
b00000000000000000000000001101100 L"
b00000000000000000000000001110000 M"
1^"
1n"
#460000000
0!
0*
0`
0j
02"
0^"
0n"
#465000000
1!
b00000000000000000000000001110000 $
1*
b00000000000000000000000001110000 -
b00000000000000000000000001110000 F
b00000000000000000000000001110100 G
1`
b00000000000000000000000001110000 g
b00000000000000000000000001110100 h
b000000000000000000000000011100 i
1j
b00000000000000000000000001110000 n
b00000000000000000000000001110000 u
12"
b00000000000000000000000001110000 L"
b00000000000000000000000001110100 M"
1^"
1n"
#470000000
0!
0*
0`
0j
02"
0^"
0n"
