examples/vcd/four-state_tbench_ModelSim.vcd
$date
	Wed Jan 05 20:58:40 2011
$end
$version
	ModelSim Version 6.5c
$end
$timescale
	1ns
$end
$scope module tbench $end
$var wire 1 ! clk $end
$var wire 1 " reset $end
$var wire 1 # resetn $end
$var wire 1 $ txd $end
$var wire 1 % rts $end
$var wire 1 & cts $end
$var wire 1 ' cts_one $end
$var wire 1 ( rxd $end
$var wire 1 ) rxd_null $end
$var wire 1 * sram_we_hi $end
$var wire 1 + sram_we_lo $end
$var wire 1 , sram_ce_hi $end
$var wire 1 - sram_ce_lo $end
$var wire 1 . sram_oe_hi $end
$var wire 1 / sram_oe_lo $end
$var wire 1 0 sram_address_hi [18] $end
$var wire 1 1 sram_address_hi [17] $end
$var wire 1 2 sram_address_hi [16] $end
$var wire 1 3 sram_address_hi [15] $end
$var wire 1 4 sram_address_hi [14] $end
$var wire 1 5 sram_address_hi [13] $end
$var wire 1 6 sram_address_hi [12] $end
$var wire 1 7 sram_address_hi [11] $end
$var wire 1 8 sram_address_hi [10] $end
$var wire 1 9 sram_address_hi [9] $end
$var wire 1 : sram_address_hi [8] $end
$var wire 1 ; sram_address_hi [7] $end
$var wire 1 < sram_address_hi [6] $end
$var wire 1 = sram_address_hi [5] $end
$var wire 1 > sram_address_hi [4] $end
$var wire 1 ? sram_address_hi [3] $end
$var wire 1 @ sram_address_hi [2] $end
$var wire 1 A sram_address_hi [1] $end
$var wire 1 B sram_address_hi [0] $end
$var wire 1 C sram_address_lo [18] $end
$var wire 1 D sram_address_lo [17] $end
$var wire 1 E sram_address_lo [16] $end
$var wire 1 F sram_address_lo [15] $end
$var wire 1 G sram_address_lo [14] $end
$var wire 1 H sram_address_lo [13] $end
$var wire 1 I sram_address_lo [12] $end
$var wire 1 J sram_address_lo [11] $end
$var wire 1 K sram_address_lo [10] $end
$var wire 1 L sram_address_lo [9] $end
$var wire 1 M sram_address_lo [8] $end
$var wire 1 N sram_address_lo [7] $end
$var wire 1 O sram_address_lo [6] $end
$var wire 1 P sram_address_lo [5] $end
$var wire 1 Q sram_address_lo [4] $end
$var wire 1 R sram_address_lo [3] $end
$var wire 1 S sram_address_lo [2] $end
$var wire 1 T sram_address_lo [1] $end
$var wire 1 U sram_address_lo [0] $end
$var wire 1 V sram_data_hi [15] $end
$var wire 1 W sram_data_hi [14] $end
$var wire 1 X sram_data_hi [13] $end
$var wire 1 Y sram_data_hi [12] $end
$var wire 1 Z sram_data_hi [11] $end
$var wire 1 [ sram_data_hi [10] $end
$var wire 1 \ sram_data_hi [9] $end
$var wire 1 ] sram_data_hi [8] $end
$var wire 1 ^ sram_data_hi [7] $end
$var wire 1 _ sram_data_hi [6] $end
$var wire 1 ` sram_data_hi [5] $end
$var wire 1 a sram_data_hi [4] $end
$var wire 1 b sram_data_hi [3] $end
$var wire 1 c sram_data_hi [2] $end
$var wire 1 d sram_data_hi [1] $end
$var wire 1 e sram_data_hi [0] $end
$var wire 1 f sram_data_lo [15] $end
$var wire 1 g sram_data_lo [14] $end
$var wire 1 h sram_data_lo [13] $end
$var wire 1 i sram_data_lo [12] $end
$var wire 1 j sram_data_lo [11] $end
$var wire 1 k sram_data_lo [10] $end
$var wire 1 l sram_data_lo [9] $end
$var wire 1 m sram_data_lo [8] $end
$var wire 1 n sram_data_lo [7] $end
$var wire 1 o sram_data_lo [6] $end
$var wire 1 p sram_data_lo [5] $end
$var wire 1 q sram_data_lo [4] $end
$var wire 1 r sram_data_lo [3] $end
$var wire 1 s sram_data_lo [2] $end
$var wire 1 t sram_data_lo [1] $end
$var wire 1 u sram_data_lo [0] $end
$var wire 1 v mem_byte_sel [3] $end
$var wire 1 w mem_byte_sel [2] $end
$var wire 1 x mem_byte_sel [1] $end
$var wire 1 y mem_byte_sel [0] $end
$var wire 1 z mem_write $end
$var wire 1 { mem_address [31] $end
$var wire 1 | mem_address [30] $end
$var wire 1 } mem_address [29] $end
$var wire 1 ~ mem_address [28] $end
$var wire 1 !! mem_address [27] $end
$var wire 1 "! mem_address [26] $end
$var wire 1 #! mem_address [25] $end
$var wire 1 $! mem_address [24] $end
$var wire 1 %! mem_address [23] $end
$var wire 1 &! mem_address [22] $end
$var wire 1 '! mem_address [21] $end
$var wire 1 (! mem_address [20] $end
$var wire 1 )! mem_address [19] $end
$var wire 1 *! mem_address [18] $end
$var wire 1 +! mem_address [17] $end
$var wire 1 ,! mem_address [16] $end
$var wire 1 -! mem_address [15] $end
$var wire 1 .! mem_address [14] $end
$var wire 1 /! mem_address [13] $end
$var wire 1 0! mem_address [12] $end
$var wire 1 1! mem_address [11] $end
$var wire 1 2! mem_address [10] $end
$var wire 1 3! mem_address [9] $end
$var wire 1 4! mem_address [8] $end
$var wire 1 5! mem_address [7] $end
$var wire 1 6! mem_address [6] $end
$var wire 1 7! mem_address [5] $end
$var wire 1 8! mem_address [4] $end
$var wire 1 9! mem_address [3] $end
$var wire 1 :! mem_address [2] $end
$var wire 1 ;! mem_address [1] $end
$var wire 1 <! mem_address [0] $end
$var wire 1 =! mem_data_w [31] $end
$var wire 1 >! mem_data_w [30] $end
$var wire 1 ?! mem_data_w [29] $end
$var wire 1 @! mem_data_w [28] $end
$var wire 1 A! mem_data_w [27] $end
$var wire 1 B! mem_data_w [26] $end
$var wire 1 C! mem_data_w [25] $end
$var wire 1 D! mem_data_w [24] $end
$var wire 1 E! mem_data_w [23] $end
$var wire 1 F! mem_data_w [22] $end
$var wire 1 G! mem_data_w [21] $end
$var wire 1 H! mem_data_w [20] $end
$var wire 1 I! mem_data_w [19] $end
$var wire 1 J! mem_data_w [18] $end
$var wire 1 K! mem_data_w [17] $end
$var wire 1 L! mem_data_w [16] $end
$var wire 1 M! mem_data_w [15] $end
$var wire 1 N! mem_data_w [14] $end
$var wire 1 O! mem_data_w [13] $end
$var wire 1 P! mem_data_w [12] $end
$var wire 1 Q! mem_data_w [11] $end
$var wire 1 R! mem_data_w [10] $end
$var wire 1 S! mem_data_w [9] $end
$var wire 1 T! mem_data_w [8] $end
$var wire 1 U! mem_data_w [7] $end
$var wire 1 V! mem_data_w [6] $end
$var wire 1 W! mem_data_w [5] $end
$var wire 1 X! mem_data_w [4] $end
$var wire 1 Y! mem_data_w [3] $end
$var wire 1 Z! mem_data_w [2] $end
$var wire 1 [! mem_data_w [1] $end
$var wire 1 \! mem_data_w [0] $end
$var wire 1 ]! mem_data_r [31] $end
$var wire 1 ^! mem_data_r [30] $end
$var wire 1 _! mem_data_r [29] $end
$var wire 1 `! mem_data_r [28] $end
$var wire 1 a! mem_data_r [27] $end
$var wire 1 b! mem_data_r [26] $end
$var wire 1 c! mem_data_r [25] $end
$var wire 1 d! mem_data_r [24] $end
$var wire 1 e! mem_data_r [23] $end
$var wire 1 f! mem_data_r [22] $end
$var wire 1 g! mem_data_r [21] $end
$var wire 1 h! mem_data_r [20] $end
$var wire 1 i! mem_data_r [19] $end
$var wire 1 j! mem_data_r [18] $end
$var wire 1 k! mem_data_r [17] $end
$var wire 1 l! mem_data_r [16] $end
$var wire 1 m! mem_data_r [15] $end
$var wire 1 n! mem_data_r [14] $end
$var wire 1 o! mem_data_r [13] $end
$var wire 1 p! mem_data_r [12] $end
$var wire 1 q! mem_data_r [11] $end
$var wire 1 r! mem_data_r [10] $end
$var wire 1 s! mem_data_r [9] $end
$var wire 1 t! mem_data_r [8] $end
$var wire 1 u! mem_data_r [7] $end
$var wire 1 v! mem_data_r [6] $end
$var wire 1 w! mem_data_r [5] $end
$var wire 1 x! mem_data_r [4] $end
$var wire 1 y! mem_data_r [3] $end
$var wire 1 z! mem_data_r [2] $end
$var wire 1 {! mem_data_r [1] $end
$var wire 1 |! mem_data_r [0] $end
$var wire 1 }! uart_mem_byte_sel [3] $end
$var wire 1 ~! uart_mem_byte_sel [2] $end
$var wire 1 !" uart_mem_byte_sel [1] $end
$var wire 1 "" uart_mem_byte_sel [0] $end
$var wire 1 #" uart_mem_write $end
$var wire 1 $" uart_mem_address [31] $end
$var wire 1 %" uart_mem_address [30] $end
$var wire 1 &" uart_mem_address [29] $end
$var wire 1 '" uart_mem_address [28] $end
$var wire 1 (" uart_mem_address [27] $end
$var wire 1 )" uart_mem_address [26] $end
$var wire 1 *" uart_mem_address [25] $end
$var wire 1 +" uart_mem_address [24] $end
$var wire 1 ," uart_mem_address [23] $end
$var wire 1 -" uart_mem_address [22] $end
$var wire 1 ." uart_mem_address [21] $end
$var wire 1 /" uart_mem_address [20] $end
$var wire 1 0" uart_mem_address [19] $end
$var wire 1 1" uart_mem_address [18] $end
$var wire 1 2" uart_mem_address [17] $end
$var wire 1 3" uart_mem_address [16] $end
$var wire 1 4" uart_mem_address [15] $end
$var wire 1 5" uart_mem_address [14] $end
$var wire 1 6" uart_mem_address [13] $end
$var wire 1 7" uart_mem_address [12] $end
$var wire 1 8" uart_mem_address [11] $end
$var wire 1 9" uart_mem_address [10] $end
$var wire 1 :" uart_mem_address [9] $end
$var wire 1 ;" uart_mem_address [8] $end
$var wire 1 <" uart_mem_address [7] $end
$var wire 1 =" uart_mem_address [6] $end
$var wire 1 >" uart_mem_address [5] $end
$var wire 1 ?" uart_mem_address [4] $end
$var wire 1 @" uart_mem_address [3] $end
$var wire 1 A" uart_mem_address [2] $end
$var wire 1 B" uart_mem_address [1] $end
$var wire 1 C" uart_mem_address [0] $end
$var wire 1 D" uart_mem_data_w [31] $end
$var wire 1 E" uart_mem_data_w [30] $end
$var wire 1 F" uart_mem_data_w [29] $end
$var wire 1 G" uart_mem_data_w [28] $end
$var wire 1 H" uart_mem_data_w [27] $end
$var wire 1 I" uart_mem_data_w [26] $end
$var wire 1 J" uart_mem_data_w [25] $end
$var wire 1 K" uart_mem_data_w [24] $end
$var wire 1 L" uart_mem_data_w [23] $end
$var wire 1 M" uart_mem_data_w [22] $end
$var wire 1 N" uart_mem_data_w [21] $end
$var wire 1 O" uart_mem_data_w [20] $end
$var wire 1 P" uart_mem_data_w [19] $end
$var wire 1 Q" uart_mem_data_w [18] $end
$var wire 1 R" uart_mem_data_w [17] $end
$var wire 1 S" uart_mem_data_w [16] $end
$var wire 1 T" uart_mem_data_w [15] $end
$var wire 1 U" uart_mem_data_w [14] $end
$var wire 1 V" uart_mem_data_w [13] $end
$var wire 1 W" uart_mem_data_w [12] $end
$var wire 1 X" uart_mem_data_w [11] $end
$var wire 1 Y" uart_mem_data_w [10] $end
$var wire 1 Z" uart_mem_data_w [9] $end
$var wire 1 [" uart_mem_data_w [8] $end
$var wire 1 \" uart_mem_data_w [7] $end
$var wire 1 ]" uart_mem_data_w [6] $end
$var wire 1 ^" uart_mem_data_w [5] $end
$var wire 1 _" uart_mem_data_w [4] $end
$var wire 1 `" uart_mem_data_w [3] $end
$var wire 1 a" uart_mem_data_w [2] $end
$var wire 1 b" uart_mem_data_w [1] $end
$var wire 1 c" uart_mem_data_w [0] $end
$var wire 1 d" uart_mem_data_r [31] $end
$var wire 1 e" uart_mem_data_r [30] $end
$var wire 1 f" uart_mem_data_r [29] $end
$var wire 1 g" uart_mem_data_r [28] $end
$var wire 1 h" uart_mem_data_r [27] $end
$var wire 1 i" uart_mem_data_r [26] $end
$var wire 1 j" uart_mem_data_r [25] $end
$var wire 1 k" uart_mem_data_r [24] $end
$var wire 1 l" uart_mem_data_r [23] $end
$var wire 1 m" uart_mem_data_r [22] $end
$var wire 1 n" uart_mem_data_r [21] $end
$var wire 1 o" uart_mem_data_r [20] $end
$var wire 1 p" uart_mem_data_r [19] $end
$var wire 1 q" uart_mem_data_r [18] $end
$var wire 1 r" uart_mem_data_r [17] $end
$var wire 1 s" uart_mem_data_r [16] $end
$var wire 1 t" uart_mem_data_r [15] $end
$var wire 1 u" uart_mem_data_r [14] $end
$var wire 1 v" uart_mem_data_r [13] $end
$var wire 1 w" uart_mem_data_r [12] $end
$var wire 1 x" uart_mem_data_r [11] $end
$var wire 1 y" uart_mem_data_r [10] $end
$var wire 1 z" uart_mem_data_r [9] $end
$var wire 1 {" uart_mem_data_r [8] $end
$var wire 1 |" uart_mem_data_r [7] $end
$var wire 1 }" uart_mem_data_r [6] $end
$var wire 1 ~" uart_mem_data_r [5] $end
$var wire 1 !# uart_mem_data_r [4] $end
$var wire 1 "# uart_mem_data_r [3] $end
$var wire 1 ## uart_mem_data_r [2] $end
$var wire 1 $# uart_mem_data_r [1] $end
$var wire 1 %# uart_mem_data_r [0] $end
$var wire 1 &# uart_mem_pause $end
$var wire 1 '# uart_dbg [7] $end
$var wire 1 (# uart_dbg [6] $end
$var wire 1 )# uart_dbg [5] $end
$var wire 1 *# uart_dbg [4] $end
$var wire 1 +# uart_dbg [3] $end
$var wire 1 ,# uart_dbg [2] $end
$var wire 1 -# uart_dbg [1] $end
$var wire 1 .# uart_dbg [0] $end
$upscope $end
$enddefinitions $end
#0
$dumpvars
1!
1"
0#
x$
x%
x&
0'
x(
1)
1*
1+
0,
0-
0.
0/
0z
1#"
1&#
xV
xW
xX
xY
xZ
x[
x\
x]
x^
x_
x`
xa
xb
xc
xd
xe
xf
xg
xh
xi
xj
xk
xl
xm
xn
xo
xp
xq
xr
xs
xt
xu
x]!
x^!
x_!
x`!
xa!
xb!
xc!
xd!
xe!
xf!
xg!
xh!
xi!
xj!
xk!
xl!
xm!
xn!
xo!
xp!
xq!
xr!
xs!
xt!
xu!
xv!
xw!
xx!
xy!
xz!
x{!
x|!
0{
0|
0}
0~
0!!
0"!
0#!
0$!
0%!
0&!
0'!
0(!
0)!
0*!
0+!
0,!
0-!
0.!
0/!
00!
01!
02!
03!
04!
05!
06!
07!
08!
09!
0:!
0;!
0<!
00
01
02
03
04
05
06
07
08
09
0:
0;
0<
0=
0>
0?
0@
0A
0B
0C
0D
0E
0F
0G
0H
0I
0J
0K
0L
0M
0N
0O
0P
0Q
0R
0S
0T
0U
0v
0w
0x
0y
z=!
z>!
z?!
z@!
zA!
zB!
zC!
zD!
zE!
zF!
zG!
zH!
zI!
zJ!
zK!
zL!
zM!
zN!
zO!
zP!
zQ!
zR!
zS!
zT!
zU!
zV!
zW!
zX!
zY!
zZ!
z[!
z\!
1}!
1~!
1!"
1""
0$"
0%"
0&"
0'"
0("
0)"
0*"
0+"
0,"
0-"
0."
0/"
10"
01"
02"
03"
04"
05"
06"
07"
08"
09"
0:"
0;"
0<"
0="
0>"
0?"
0@"
0A"
0B"
0C"
0D"
0E"
0F"
0G"
0H"
0I"
0J"
0K"
0L"
0M"
0N"
0O"
0P"
0Q"
0R"
0S"
0T"
0U"
0V"
0W"
0X"
0Y"
0Z"
0["
0\"
0]"
1^"
0_"
0`"
0a"
0b"
0c"
zd"
ze"
zf"
zg"
zh"
zi"
zj"
zk"
zl"
zm"
zn"
zo"
zp"
zq"
zr"
zs"
zt"
zu"
zv"
zw"
zx"
zy"
zz"
z{"
z|"
z}"
z~"
z!#
z"#
z##
z$#
z%#
x'#
x(#
x)#
x*#
x+#
x,#
x-#
x.#
$end
#75
0!
#150
1!
1%
1$
1&
1(
#225
0!
#300
1!
#375
0!
#450
1!
#525
0!
#600
1!
#675
0!
#750
1!
#825
0!
#900
1!
#975
0!
#1050
1!
#1125
0!
#1200
1!
#1275
0!
#1350
1!
#1425
0!
#1500
0"
1!
1#
#1575
0!
#1650
1!
#1725
0!
#1800
1!
#1875
0!
#1950
1!
#2025
0!
#2100
1!
#2175
0!
#2250
1!
#2325
0!
#2400
1!
#2475
0!
#2550
1!
#2625
0!
#2700
1!
#2775
0!
#2850
1!
#2925
0!
#3000
1!
#3075
0!
#3150
1!
#3225
0!
#3300
1!
#3375
0!
#3450
1!
#3525
0!
#3600
1!
#3675
0!
#3750
1!
#3825
0!
#3900
1!
1S
1@
1:!
#3975
0!
#4050
1!
0S
1R
0@
1?
0:!
19!
#4125
0!
#4200
1!
1S
1@
1:!
#4275
0!
#4350
1!
0S
0R
1Q
0@
0?
1>
0:!
09!
18!
#4425
0!
#4500
1!
1S
1@
1:!
#4575
0!
#4650
1!
#4725
0!
#4800
1!
0Q
1P
0>
1=
08!
17!
#4875
0!
#4950
1!
0+
0*
1/
1.
1y
1x
1w
1v
1z
0u
0t
0s
0r
0q
0p
0o
0n
0m
0l
0k
0j
0i
0h
0g
0f
0e
0d
0c
0b
0a
0`
0_
0^
0]
0\
0[
0Z
0Y
0X
0W
0V
x\!
x[!
xZ!
xY!
xX!
xW!
xV!
xU!
xT!
xS!
xR!
xQ!
xP!
xO!
xN!
xM!
xL!
xK!
xJ!
xI!
xH!
xG!
xF!
xE!
xD!
xC!
xB!
xA!
x@!
x?!
x>!
x=!
0\!
0[!
0Z!
0Y!
0X!
0W!
0V!
0U!
0T!
0S!
0R!
0Q!
0P!
0O!
0N!
0M!
0L!
0K!
0J!
0I!
0H!
0G!
0F!
0E!
0D!
0C!
0B!
0A!
0@!
0?!
0>!
0=!
#5025
0!
#5100
1!
0/
0.
zu
zt
zs
zr
zq
zp
zo
zn
zm
zl
zk
zj
zi
zh
zg
zf
ze
zd
zc
zb
za
z`
z_
z^
z]
z\
z[
zZ
zY
zX
zW
zV
1+
1*
1Q
0P
1>
0=
0z
xu
xt
xs
xr
xq
xp
xo
xn
xm
xl
xk
xj
xi
xh
xg
xf
xe
xd
xc
xb
xa
x`
x_
x^
x]
x\
x[
xZ
xY
xX
xW
xV
z\!
z[!
zZ!
zY!
zX!
zW!
zV!
zU!
zT!
zS!
zR!
zQ!
zP!
zO!
zN!
zM!
zL!
zK!
zJ!
zI!
zH!
zG!
zF!
zE!
zD!
zC!
zB!
zA!
z@!
z?!
z>!
z=!
0y
0x
0w
0v
0S
1R
0@
1?
18!
07!
0|!
0{!
0z!
0y!
0x!
0w!
0v!
0u!
0t!
0s!
0r!
0q!
0p!
0o!
0n!
0m!
0l!
0k!
0j!
0i!
0h!
0g!
0f!
0e!
0d!
0c!
0b!
0a!
0`!
0_!
0^!
0]!
0:!
19!
x|!
x{!
xz!
xy!
xx!
xw!
xv!
xu!
xt!
xs!
xr!
xq!
xp!
xo!
xn!
xm!
xl!
xk!
xj!
xi!
xh!
xg!
xf!
xe!
xd!
xc!
xb!
xa!
x`!
x_!
x^!
x]!
0u
0t
0s
0r
0q
0p
0o
0n
0m
0l
0k
0j
0i
0h
0g
0f
0e
0d
0c
0b
0a
0`
0_
0^
0]
0\
0[
0Z
0Y
0X
0W
0V
xu
xt
xs
xr
xq
xp
xo
xn
xm
xl
xk
xj
xi
xh
xg
xf
xe
xd
xc
xb
xa
x`
x_
x^
x]
x\
x[
xZ
xY
xX
xW
xV
#5175
0!
#5250
1!
1S
1@
1:!
#5325
0!
#5400
1!
0S
0R
0Q
1P
0@
0?
0>
1=
0:!
09!
08!
17!
#5475
0!
#5550
1!
1S
1R
0P
1@
1?
0=
1:!
19!
07!
#5625
0!
#5700
1!
0S
0R
1Q
0@
0?
1>
0:!
09!
18!
#5775
0!
#5850
1!
1S
1@
1:!
#5925
0!
#6000
1!
#6075
0!
#6150
1!
0Q
1P
0>
1=
08!
17!
0|!
0{!
0z!
0y!
0x!
0w!
0v!
0u!
0t!
0s!
0r!
0q!
0p!
0o!
0n!
0m!
0l!
0k!
0j!
0i!
0h!
0g!
0f!
0e!
0d!
0c!
0b!
0a!
0`!
0_!
0^!
0]!
0u
0t
0s
0r
0q
0p
0o
0n
0m
0l
0k
0j
0i
0h
0g
0f
0e
0d
0c
0b
0a
0`
0_
0^
0]
0\
0[
0Z
0Y
0X
0W
0V
#6225
0!
#6300
1!
xu
0+
0*
1/
1.
x\!
0[!
0Z!
0Y!
0X!
0W!
0V!
0U!
0T!
0S!
0R!
0Q!
0P!
0O!
0N!
0M!
0L!
0K!
0J!
0I!
0H!
0G!
0F!
0E!
0D!
0C!
0B!
0A!
0@!
0?!
0>!
0=!
1y
1x
1w
1v
1z
1u
1\!
#6375
0!
#6450
1!
0/
0.
zu
zt
zs
zr
zq
zp
zo
zn
zm
zl
zk
zj
zi
zh
zg
zf
ze
zd
zc
zb
za
z`
z_
z^
z]
z\
z[
zZ
zY
zX
zW
zV
1+
1*
1Q
0P
1>
0=
0z
0u
0t
0s
0r
0q
0p
0o
0n
0m
0l
0k
0j
0i
0h
0g
0f
0e
0d
0c
0b
0a
0`
0_
0^
0]
0\
0[
0Z
0Y
0X
0W
0V
z\!
z[!
zZ!
zY!
zX!
zW!
zV!
zU!
zT!
zS!
zR!
zQ!
zP!
zO!
zN!
zM!
zL!
zK!
zJ!
zI!
zH!
zG!
zF!
zE!
zD!
zC!
zB!
zA!
z@!
z?!
z>!
z=!
0y
0x
0w
0v
0S
1R
0@
1?
18!
07!
1|!
0:!
19!
x|!
x{!
xz!
xy!
xx!
xw!
xv!
xu!
xt!
xs!
xr!
xq!
xp!
xo!
xn!
xm!
xl!
xk!
xj!
xi!
xh!
xg!
xf!
xe!
xd!
xc!
xb!
xa!
x`!
x_!
x^!
x]!
1u
xu
xt
xs
xr
xq
xp
xo
xn
xm
xl
xk
xj
xi
xh
xg
xf
xe
xd
xc
xb
xa
x`
x_
x^
x]
x\
x[
xZ
xY
xX
xW
xV
#6525
0!
#6600
1!
1S
1@
1:!
#6675
0!
#6750
1!
0S
0R
0Q
1P
0@
0?
0>
1=
0:!
09!
08!
17!
#6825
0!
#6900
1!
1S
1R
0P
1@
1?
0=
1:!
19!
07!
#6975
0!
#7050
1!
0S
0R
1Q
0@
0?
1>
0:!
09!
18!
#7125
0!
#7200
1!
1S
1@
1:!
#7275
0!
#7350
1!
#7425
0!
#7500
1!
0Q
1P
0>
1=
08!
17!
1|!
0{!
0z!
0y!
0x!
0w!
0v!
0u!
0t!
0s!
0r!
0q!
0p!
0o!
0n!
0m!
0l!
0k!
0j!
0i!
0h!
0g!
0f!
0e!
0d!
0c!
0b!
0a!
0`!
0_!
0^!
0]!
1u
0t
0s
0r
0q
0p
0o
0n
0m
0l
0k
0j
0i
0h
0g
0f
0e
0d
0c
0b
0a
0`
0_
0^
0]
0\
0[
0Z
0Y
0X
0W
0V
#7575
0!
#7650
1!
0+
0*
1/
1.
1y
1x
1w
1v
1z
1\!
0[!
0Z!
0Y!
0X!
0W!
0V!
0U!
0T!
0S!
0R!
0Q!
0P!
0O!
0N!
0M!
0L!
0K!
0J!
0I!
0H!
0G!
0F!
0E!
0D!
0C!
0B!
0A!
0@!
0?!
0>!
0=!
#7725
0!
#7800
1!
0/
0.
zu
zt
zs
zr
zq
zp
zo
zn
zm
zl
zk
zj
zi
zh
zg
zf
ze
zd
zc
zb
za
z`
z_
z^
z]
z\
z[
zZ
zY
zX
zW
zV
1+
1*
1Q
0P
1>
0=
0z
1u
0t
0s
0r
0q
0p
0o
0n
0m
0l
0k
0j
0i
0h
0g
0f
0e
0d
0c
0b
0a
0`
0_
0^
0]
0\
0[
0Z
0Y
0X
0W
0V
z\!
z[!
zZ!
zY!
zX!
zW!
zV!
zU!
zT!
zS!
zR!
zQ!
zP!
zO!
zN!
zM!
zL!
zK!
zJ!
zI!
zH!
zG!
zF!
zE!
zD!
zC!
zB!
zA!
z@!
z?!
z>!
z=!
0y
0x
0w
0v
0S
1R
0@
1?
18!
07!
0:!
19!
x|!
x{!
xz!
xy!
xx!
xw!
xv!
xu!
xt!
xs!
xr!
xq!
xp!
xo!
xn!
xm!
xl!
xk!
xj!
xi!
xh!
xg!
xf!
xe!
xd!
xc!
xb!
xa!
x`!
x_!
x^!
x]!
xu
xt
xs
xr
xq
xp
xo
xn
xm
xl
xk
xj
xi
xh
xg
xf
xe
xd
xc
xb
xa
x`
x_
x^
x]
x\
x[
xZ
xY
xX
xW
xV
#7875
0!
#7950
1!
1S
1@
1:!
#8025
0!
#8100
1!
0S
0R
0Q
1P
0@
0?
0>
1=
0:!
09!
08!
17!
#8175
0!
#8250
1!
1S
1R
0P
1@
1?
0=
1:!
19!
07!
#8325
0!
#8400
1!
0S
0R
1Q
0@
0?
1>
0:!
09!
18!
#8475
0!
#8550
1!
1S
1@
1:!
#8625
0!
#8700
1!
#8775
0!
#8850
1!
0Q
1P
0>
1=
08!
17!
1|!
0{!
0z!
0y!
0x!
0w!
0v!
0u!
0t!
0s!
0r!
0q!
0p!
0o!
0n!
0m!
0l!
0k!
0j!
0i!
0h!
0g!
0f!
0e!
0d!
0c!
0b!
0a!
0`!
0_!
0^!
0]!
1u
0t
0s
0r
0q
0p
0o
0n
0m
0l
0k
0j
0i
0h
0g
0f
0e
0d
0c
0b
0a
0`
0_
0^
0]
0\
0[
0Z
0Y
0X
0W
0V
#8925
0!
#9000
1!
xu
xt
0+
0*
1/
1.
x\!
x[!
0Z!
0Y!
0X!
0W!
0V!
0U!
0T!
0S!
0R!
0Q!
0P!
0O!
0N!
0M!
0L!
0K!
0J!
0I!
0H!
0G!
0F!
0E!
0D!
0C!
0B!
0A!
0@!
0?!
0>!
0=!
1y
1x
1w
1v
1z
0u
1t
0\!
1[!
#9075
0!
#9150
1!
0/
0.
zu
zt
zs
zr
zq
zp
zo
zn
zm
zl
zk
zj
zi
zh
zg
zf
ze
zd
zc
zb
za
z`
z_
z^
z]
z\
z[
zZ
zY
zX
zW
zV
1+
1*
1Q
0P
1>
0=
0z
1u
0t
0s
0r
0q
0p
0o
0n
0m
0l
0k
0j
0i
0h
0g
0f
0e
0d
0c
0b
0a
0`
0_
0^
0]
0\
0[
0Z
0Y
0X
0W
0V
z\!
z[!
zZ!
zY!
zX!
zW!
zV!
zU!
zT!
zS!
zR!
zQ!
zP!
zO!
zN!
zM!
zL!
zK!
zJ!
zI!
zH!
zG!
zF!
zE!
zD!
zC!
zB!
zA!
z@!
z?!
z>!
z=!
0y
0x
0w
0v
0S
1R
0@
1?
18!
07!
0|!
1{!
0:!
19!
x|!
x{!
xz!
xy!
xx!
xw!
xv!
xu!
xt!
xs!
xr!
xq!
xp!
xo!
xn!
xm!
xl!
xk!
xj!
xi!
xh!
xg!
xf!
xe!
xd!
xc!
xb!
xa!
x`!
x_!
x^!
x]!
0u
1t
xu
xt
xs
xr
xq
xp
xo
xn
xm
xl
xk
xj
xi
xh
xg
xf
xe
xd
xc
xb
xa
x`
x_
x^
x]
x\
x[
xZ
xY
xX
xW
xV
#9225
0!
#9300
1!
1S
1@
1:!
#9375
0!
#9450
1!
0S
0R
0Q
1P
0@
0?
0>
1=
0:!
09!
08!
17!
#9525
0!
#9600
1!
1S
1R
0P
1@
1?
0=
1:!
19!
07!
#9675
0!
#9750
1!
0S
0R
1Q
0@
0?
1>
0:!
09!
18!
#9825
0!
#9900
1!
1S
1@
1:!
#9975
0!
#10050
1!
#10125
0!
#10200
1!
0Q
1P
0>
1=
08!
17!
0|!
1{!
0z!
0y!
0x!
0w!
0v!
0u!
0t!
0s!
0r!
0q!
0p!
0o!
0n!
0m!
0l!
0k!
0j!
0i!
0h!
0g!
0f!
0e!
0d!
0c!
0b!
0a!
0`!
0_!
0^!
0]!
0u
1t
0s
0r
0q
0p
0o
0n
0m
0l
0k
0j
0i
0h
0g
0f
0e
0d
0c
0b
0a
0`
0_
0^
0]
0\
0[
0Z
0Y
0X
0W
0V
#10275
0!
#10350
1!
xu
0+
0*
1/
1.
x\!
1[!
0Z!
0Y!
0X!
0W!
0V!
0U!
0T!
0S!
0R!
0Q!
0P!
0O!
0N!
0M!
0L!
0K!
0J!
0I!
0H!
0G!
0F!
0E!
0D!
0C!
0B!
0A!
0@!
0?!
0>!
0=!
1y
1x
1w
1v
1z
1u
1\!
#10425
0!
#10500
1!
0/
0.
zu
zt
zs
zr
zq
zp
zo
zn
zm
zl
zk
zj
zi
zh
zg
zf
ze
zd
zc
zb
za
z`
z_
z^
z]
z\
z[
zZ
zY
zX
zW
zV
1+
1*
1Q
0P
1>
0=
0z
0u
1t
0s
0r
0q
0p
0o
0n
0m
0l
0k
0j
0i
0h
0g
0f
0e
0d
0c
0b
0a
0`
0_
0^
0]
0\
0[
0Z
0Y
0X
0W
0V
z\!
z[!
zZ!
zY!
zX!
zW!
zV!
zU!
zT!
zS!
zR!
zQ!
zP!
zO!
zN!
zM!
zL!
zK!
zJ!
zI!
zH!
zG!
zF!
zE!
zD!
zC!
zB!
zA!
z@!
z?!
z>!
z=!
0y
0x
0w
0v
0S
1R
0@
1?
18!
07!
1|!
0:!
19!
x|!
x{!
xz!
xy!
xx!
xw!
xv!
xu!
xt!
xs!
xr!
xq!
xp!
xo!
xn!
xm!
xl!
xk!
xj!
xi!
xh!
xg!
xf!
xe!
xd!
xc!
xb!
xa!
x`!
x_!
x^!
x]!
1u
xu
xt
xs
xr
xq
xp
xo
xn
xm
xl
xk
xj
xi
xh
xg
xf
xe
xd
xc
xb
xa
x`
x_
x^
x]
x\
x[
xZ
xY
xX
xW
xV
#10575
0!
#10650
1!
1S
1@
1:!
#10725
0!
#10800
1!
0S
0R
0Q
1P
0@
0?
0>
1=
0:!
09!
08!
17!
#10875
0!
#10950
1!
1S
1R
0P
1@
1?
0=
1:!
19!
07!
#11025
0!
#11100
1!
0S
0R
1Q
0@
0?
1>
0:!
09!
18!
#11175
0!
#11250
1!
1S
1@
1:!
#11325
0!
#11400
1!
#11475
0!
#11550
1!
0Q
1P
0>
1=
08!
17!
1|!
1{!
0z!
0y!
0x!
0w!
0v!
0u!
0t!
0s!
0r!
0q!
0p!
0o!
0n!
0m!
0l!
0k!
0j!
0i!
0h!
0g!
0f!
0e!
0d!
0c!
0b!
0a!
0`!
0_!
0^!
0]!
1u
1t
0s
0r
0q
0p
0o
0n
0m
0l
0k
0j
0i
0h
0g
0f
0e
0d
0c
0b
0a
0`
0_
0^
0]
0\
0[
0Z
0Y
0X
0W
0V
#11625
0!
